%YAML 1.1
%TAG !u! tag:unity3d.com,2011:
--- !u!74 &7400000
AnimationClip:
  m_ObjectHideFlags: 0
  m_CorrespondingSourceObject: {fileID: 0}
  m_PrefabInstance: {fileID: 0}
  m_PrefabAsset: {fileID: 0}
  m_Name: Quieto
  serializedVersion: 6
  m_Legacy: 0
  m_Compressed: 0
  m_UseHighQualityCurve: 1
  m_RotationCurves: []
  m_CompressedRotationCurves: []
  m_EulerCurves: []
  m_PositionCurves: []
  m_ScaleCurves: []
  m_FloatCurves: []
  m_PPtrCurves:
  - curve:
    - time: 0
      value: {fileID: 21300000, guid: 81db4b300a5757642a42a3aff96eccdf, type: 3}
    - time: 0.083333336
      value: {fileID: 21300000, guid: 8de9742431ca3894b8a1ad2c5fda5521, type: 3}
    - time: 0.16666667
      value: {fileID: 21300000, guid: 6e40334eb98b8a6489482c74d1c8117e, type: 3}
    - time: 0.25
      value: {fileID: 21300000, guid: e612e534703cfcf4eb10039b14fa6886, type: 3}
    - time: 0.33333334
      value: {fileID: 21300000, guid: 9a147624bf7d90e45be15471d5717c91, type: 3}
    - time: 0.41666666
      value: {fileID: 21300000, guid: 5eb5dcc2c1a67a74098355858d6d3233, type: 3}
    - time: 0.5
      value: {fileID: 21300000, guid: c5e17371967b06c4da12437b62c15800, type: 3}
    - time: 0.5833333
      value: {fileID: 21300000, guid: 292f6b26f5613b042a8a6bd177e87676, type: 3}
    - time: 0.6666667
      value: {fileID: 21300000, guid: bc6b2fd736c31884b82b814317d7751a, type: 3}
    - time: 0.75
      value: {fileID: 21300000, guid: eab8edb0dd42ce840b9754ae0a3ee622, type: 3}
    - time: 0.8333333
      value: {fileID: 21300000, guid: 117e1ccd9d69a0241a9248cc41ebc635, type: 3}
    - time: 0.9166667
      value: {fileID: 21300000, guid: 3013fc96ff082ed4ca3e07a5906a93c7, type: 3}
    - time: 1
      value: {fileID: 21300000, guid: 220b07276690cfe42bd5cbcf15507bdf, type: 3}
    - time: 1.0833334
      value: {fileID: 21300000, guid: 7705352e702775a4aa424ced1d6f6773, type: 3}
    - time: 1.1666666
      value: {fileID: 21300000, guid: 838f72870112f8e48b62de5acb381bd9, type: 3}
    attribute: m_Sprite
    path: 
    classID: 212
    script: {fileID: 0}
  m_SampleRate: 12
  m_WrapMode: 0
  m_Bounds:
    m_Center: {x: 0, y: 0, z: 0}
    m_Extent: {x: 0, y: 0, z: 0}
  m_ClipBindingConstant:
    genericBindings:
    - serializedVersion: 2
      path: 0
      attribute: 0
      script: {fileID: 0}
      typeID: 212
      customType: 23
      isPPtrCurve: 1
    pptrCurveMapping:
    - {fileID: 21300000, guid: 81db4b300a5757642a42a3aff96eccdf, type: 3}
    - {fileID: 21300000, guid: 8de9742431ca3894b8a1ad2c5fda5521, type: 3}
    - {fileID: 21300000, guid: 6e40334eb98b8a6489482c74d1c8117e, type: 3}
    - {fileID: 21300000, guid: e612e534703cfcf4eb10039b14fa6886, type: 3}
    - {fileID: 21300000, guid: 9a147624bf7d90e45be15471d5717c91, type: 3}
    - {fileID: 21300000, guid: 5eb5dcc2c1a67a74098355858d6d3233, type: 3}
    - {fileID: 21300000, guid: c5e17371967b06c4da12437b62c15800, type: 3}
    - {fileID: 21300000, guid: 292f6b26f5613b042a8a6bd177e87676, type: 3}
    - {fileID: 21300000, guid: bc6b2fd736c31884b82b814317d7751a, type: 3}
    - {fileID: 21300000, guid: eab8edb0dd42ce840b9754ae0a3ee622, type: 3}
    - {fileID: 21300000, guid: 117e1ccd9d69a0241a9248cc41ebc635, type: 3}
    - {fileID: 21300000, guid: 3013fc96ff082ed4ca3e07a5906a93c7, type: 3}
    - {fileID: 21300000, guid: 220b07276690cfe42bd5cbcf15507bdf, type: 3}
    - {fileID: 21300000, guid: 7705352e702775a4aa424ced1d6f6773, type: 3}
    - {fileID: 21300000, guid: 838f72870112f8e48b62de5acb381bd9, type: 3}
  m_AnimationClipSettings:
    serializedVersion: 2
    m_AdditiveReferencePoseClip: {fileID: 0}
    m_AdditiveReferencePoseTime: 0
    m_StartTime: 0
    m_StopTime: 1.25
    m_OrientationOffsetY: 0
    m_Level: 0
    m_CycleOffset: 0
    m_HasAdditiveReferencePose: 0
    m_LoopTime: 1
    m_LoopBlend: 0
    m_LoopBlendOrientation: 0
    m_LoopBlendPositionY: 0
    m_LoopBlendPositionXZ: 0
    m_KeepOriginalOrientation: 0
    m_KeepOriginalPositionY: 1
    m_KeepOriginalPositionXZ: 0
    m_HeightFromFeet: 0
    m_Mirror: 0
  m_EditorCurves: []
  m_EulerEditorCurves: []
  m_HasGenericRootTransform: 0
  m_HasMotionFloatCurves: 0
  m_Events: []
